rpm -U --nodeps /tmp/moss/*.rpm
mv -v /tmp/moss/zabbix_agentd.conf /etc/zabbix/zabbix_agentd.d/moss-zabbix.conf
mv -v /tmp/moss/zabbix_agentd.psk /etc/zabbix/
mv -v /tmp/moss/zabbix_agentd /usr/sbin/zabbix_agentd
chmod a+x /usr/sbin/zabbix_agentd
chown root:root /usr/sbin/zabbix_agentd 
chown root:root /etc/zabbix/zabbix_agentd.d/moss-zabbix.conf
/sbin/chkconfig zabbix-agent on
/sbin/service zabbix-agent start